{
  "disable_existing_loggers": false,
  "formatters": {
    "package_formatter": {
      "format": "%(asctime)s,%(msecs)d %(levelname)-5s [%(lineno)d] %(message)s"
    }
  },
  "handlers": {
    "console": {
      "class": "logging.StreamHandler",
      "level": "DEBUG",
      "formatter": "package_formatter"
    }
  },
  "loggers": {
      "assin_pkg.*":{
          "level":"ERROR",
          "handlers":[
              "console"
          ]
      }
  },
  "root": {
    "level": "DEBUG",
    "handlers": [
      "console"
    ]
  },
  "version": 1
}